<?xml version="1.0" encoding="utf-8"?>
<!-- Generator: $$$/GeneralStr/196=Adobe Illustrator 27.6.0, SVG Export Plug-In . SVG Version: 6.00 Build 0)  -->
<svg version="1.1" id="Calque_1" xmlns="http://www.w3.org/2000/svg" xmlns:xlink="http://www.w3.org/1999/xlink" x="0px" y="0px"
	 viewBox="0 0 498 118" style="enable-background:new 0 0 498 118;" xml:space="preserve">
<style type="text/css">
	.st0{fill-rule:evenodd;clip-rule:evenodd;fill:#F17361;}
</style>
<path class="st0" d="M59,34.4c-3.8,0-6.9-3.1-6.9-6.9c0-3.8,3.1-6.9,6.9-6.9c3.8,0,6.9,3.1,6.9,6.9C65.9,31.3,62.8,34.4,59,34.4z
	 M59,40c-6.9,0-12.5-5.6-12.5-12.5C46.5,20.6,52.1,15,59,15c6.9,0,12.5,5.6,12.5,12.5C71.5,34.4,65.9,40,59,40z"/>
<path class="st0" d="M59,97.4c-3.8,0-6.9-3.1-6.9-6.9c0-3.8,3.1-6.9,6.9-6.9c3.8,0,6.9,3.1,6.9,6.9C66,94.2,62.9,97.4,59,97.4z
	 M59,102.9c-6.9,0-12.5-5.6-12.5-12.5c0-6.9,5.6-12.5,12.5-12.5c6.9,0,12.5,5.6,12.5,12.5C71.5,97.3,65.9,102.9,59,102.9z"/>
<path class="st0" d="M27.5,52.1c-3.6,0-6.9-3.1-6.9-7.4c0-4.3,3.3-7.4,6.9-7.4c3.6,0,6.9,3.1,6.9,7.4C34.5,48.9,31.2,52,27.5,52.1z
	 M27.5,57.6c-6.9,0-12.5-5.8-12.5-12.9c0-7.2,5.6-13,12.5-13c6.9,0,12.5,5.8,12.5,12.9C40,51.8,34.4,57.6,27.5,57.6z"/>
<path class="st0" d="M64.1,80.7l0-43.5l-9.3,0l0,43.5L64.1,80.7z"/>
<path class="st0" d="M22.4,59.2c0.1,4,0.8,9.4,4,14.2c1.9,2.9,4.9,4.8,7.7,6.2c2.9,1.4,6.1,2.3,9.1,3c3,0.7,5.8,1.2,8,1.5
	c0.7,0.1,1.4,0.2,2,0.3c0.3,0,0.5,0.1,0.7,0.1c0.6,0.1,0.9,0.1,1,0.1c0.1,0,0.1,0,0.1,0l2.3-8.9c-0.6-0.2-1.4-0.3-2.1-0.4l0,0
	c-0.3,0-0.5-0.1-0.8-0.1c-0.6-0.1-1.2-0.2-1.9-0.3c-2.1-0.3-4.6-0.7-7.3-1.3c-2.6-0.6-5.2-1.4-7.2-2.4c-2.1-1-3.4-2.1-3.9-2.9
	c-1.8-2.7-2.4-6.2-2.5-9.3c0-1.5,0.1-2.8,0.2-3.8c0.1-0.5,0.1-0.8,0.1-1.1c0-0.1,0-0.2,0-0.2c0,0,0,0,0,0l0,0c0,0,0,0-4.5-0.9
	C23,52,23,52,23,52l0,0l0,0l0,0l0,0c0,0,0,0.1,0,0.1c0,0.1,0,0.3-0.1,0.4c-0.1,0.4-0.1,0.9-0.2,1.5C22.5,55.4,22.4,57.2,22.4,59.2z"
	/>
<path d="M101.2,33.7l8.2,0l0,20l12.8,0l0,6.5l-21,0L101.2,33.7z M142.2,55.8l-9.3,0l-1.3,4.4l-8.4,0l9.9-26.5l8.9,0l10,26.5l-8.6,0
	L142.2,55.8z M140.5,50.1l-2.9-9.5l-2.9,9.5L140.5,50.1z M167.1,33.6l20.2,0l0,5.7l-12,0l0,4.6l10.3,0l0,5.3l-10.3,0l0,10.8l-8.2,0
	L167.1,33.6z M190.7,46.9c0-4.3,1.2-7.7,3.6-10.1c2.4-2.4,5.8-3.6,10.1-3.6c4.4,0,7.8,1.2,10.2,3.5c2.4,2.4,3.6,5.7,3.6,9.9
	c0,3.1-0.5,5.6-1.6,7.6c-1,2-2.5,3.5-4.5,4.6c-2,1.1-4.4,1.6-7.4,1.7c-3,0-5.5-0.5-7.4-1.4c-2-0.9-3.5-2.5-4.8-4.5
	C191.3,52.6,190.7,50,190.7,46.9z M198.9,46.9c0,2.7,0.5,4.6,1.5,5.8c1,1.2,2.4,1.8,4.1,1.7c1.8,0,3.1-0.6,4.1-1.7
	c1-1.1,1.4-3.2,1.4-6.2c0-2.5-0.5-4.3-1.5-5.5c-1-1.2-2.4-1.7-4.1-1.7c-1.6,0-3,0.6-4,1.8C199.4,42.3,198.9,44.2,198.9,46.9z
	 M222.7,60.1l0-26.5l13.6,0c2.5,0,4.5,0.2,5.8,0.6c1.3,0.4,2.4,1.2,3.2,2.4c0.8,1.2,1.2,2.6,1.2,4.3c0,1.5-0.3,2.7-0.9,3.8
	c-0.6,1.1-1.5,1.9-2.6,2.6c-0.7,0.4-1.7,0.8-2.9,1.1c1,0.3,1.7,0.6,2.1,1c0.3,0.2,0.7,0.7,1.3,1.4c0.6,0.7,1,1.3,1.2,1.6l4,7.7
	l-9.2,0l-4.4-8.1c-0.6-1-1-1.7-1.5-2c-0.6-0.4-1.3-0.6-2-0.6l-0.7,0l0,10.7L222.7,60.1z M230.9,44.3l3.5,0c0.4,0,1.1-0.1,2.2-0.4
	c0.5-0.1,1-0.4,1.3-0.8c0.3-0.4,0.5-1,0.5-1.5c0-0.9-0.3-1.5-0.8-2c-0.5-0.5-1.6-0.7-3.1-0.7l-3.6,0L230.9,44.3z M264.7,50.5l0-5.5
	l12.6,0l0,11.3c-2.4,1.7-4.6,2.8-6.4,3.4c-1.9,0.6-4.1,0.9-6.6,0.9c-3.1,0-5.7-0.5-7.7-1.6c-2-1.1-3.5-2.7-4.6-4.8
	c-1.1-2.1-1.6-4.6-1.6-7.3c0-2.9,0.6-5.4,1.8-7.5c1.2-2.1,2.9-3.8,5.2-4.9c1.8-0.9,4.2-1.3,7.2-1.3c2.9,0,5.1,0.3,6.6,0.8
	c1.5,0.5,2.7,1.4,3.6,2.5c1,1.1,1.7,2.5,2.2,4.2L269,42c-0.3-1-0.9-1.8-1.7-2.3c-0.8-0.5-1.8-0.8-3-0.8c-1.8,0-3.2,0.6-4.3,1.9
	c-1.1,1.2-1.6,3.2-1.6,5.9c0,2.9,0.5,4.9,1.6,6.1c1.1,1.2,2.6,1.8,4.5,1.8c0.9,0,1.8-0.1,2.6-0.4c0.8-0.3,1.8-0.7,2.9-1.4l0-2.5
	L264.7,50.5z M282.1,33.5l21.9,0l0,5.7l-13.7,0l0,4.2l12.7,0l0,5.4l-12.7,0l0,5.2l14.1,0l0,6l-22.3,0L282.1,33.5z"/>
<path d="M103.3,87.2c-1,0-2-0.2-2.8-0.7c-0.8-0.5-1.5-1.2-2-2c-0.5-0.8-0.7-1.8-0.7-2.8c0-1.1,0.2-2,0.7-2.8c0.5-0.8,1.1-1.5,1.9-2
	c0.8-0.5,1.7-0.7,2.7-0.7c0.8,0,1.6,0.2,2.3,0.5c0.7,0.3,1.3,0.8,1.7,1.4l0-5.6c0-0.3,0.1-0.5,0.3-0.7c0.2-0.2,0.4-0.3,0.7-0.3
	c0.3,0,0.5,0.1,0.7,0.3c0.2,0.2,0.3,0.4,0.3,0.7l0,9.3c0,1-0.3,2-0.8,2.8c-0.5,0.8-1.1,1.5-2,2C105.3,87,104.3,87.2,103.3,87.2z
	 M103.3,85.6c0.7,0,1.4-0.2,1.9-0.5c0.6-0.3,1-0.8,1.3-1.4c0.3-0.6,0.5-1.3,0.5-2c0-0.7-0.2-1.4-0.5-2c-0.3-0.6-0.8-1-1.3-1.4
	c-0.6-0.3-1.2-0.5-1.9-0.5c-0.7,0-1.3,0.2-1.9,0.5c-0.6,0.3-1,0.8-1.4,1.4c-0.3,0.6-0.5,1.3-0.5,2c0,0.7,0.2,1.4,0.5,2
	c0.3,0.6,0.8,1.1,1.4,1.4C102,85.4,102.6,85.6,103.3,85.6z M117.5,87.2c-1.1,0-2.1-0.2-2.9-0.7c-0.8-0.5-1.5-1.1-2-2
	c-0.5-0.8-0.7-1.8-0.7-2.9c0-1.1,0.2-2.1,0.7-2.9c0.5-0.8,1.1-1.5,1.9-2c0.8-0.5,1.7-0.7,2.8-0.7c1,0,1.9,0.2,2.7,0.7
	c0.7,0.5,1.3,1.1,1.7,1.9c0.4,0.8,0.6,1.7,0.6,2.8c0,0.2-0.1,0.4-0.2,0.6c-0.1,0.1-0.3,0.2-0.6,0.2l-8.2,0l0-1.5l8.2,0l-0.8,0.6
	c0-0.7-0.2-1.3-0.4-1.9c-0.3-0.6-0.6-1-1.1-1.3c-0.5-0.3-1.1-0.5-1.8-0.5c-0.8,0-1.4,0.2-2,0.5c-0.5,0.3-1,0.8-1.3,1.4
	c-0.3,0.6-0.4,1.3-0.4,2c0,0.8,0.2,1.4,0.5,2c0.3,0.6,0.8,1.1,1.4,1.4c0.6,0.3,1.3,0.5,2.1,0.5c0.4,0,0.9-0.1,1.3-0.2
	c0.5-0.2,0.8-0.3,1.1-0.6c0.2-0.1,0.4-0.2,0.6-0.2c0.2,0,0.4,0,0.6,0.2c0.2,0.2,0.3,0.4,0.3,0.6c0,0.2-0.1,0.4-0.3,0.6
	c-0.5,0.4-1,0.7-1.7,0.9C118.8,87.1,118.1,87.2,117.5,87.2z M128.7,87.2c-0.9,0-1.7-0.1-2.5-0.4c-0.8-0.3-1.4-0.7-1.9-1.1
	c-0.2-0.2-0.2-0.4-0.2-0.7c0-0.2,0.1-0.4,0.4-0.6c0.2-0.2,0.5-0.2,0.7-0.2c0.2,0,0.4,0.1,0.6,0.3c0.3,0.3,0.7,0.5,1.2,0.8
	c0.5,0.2,1.1,0.3,1.7,0.3c0.9,0,1.5-0.1,1.9-0.4c0.4-0.3,0.6-0.7,0.7-1.1c0-0.4-0.2-0.8-0.6-1.1c-0.4-0.3-1.1-0.5-2.2-0.7
	c-1.3-0.3-2.3-0.6-2.9-1.2s-0.9-1.2-0.9-1.9c0-0.7,0.2-1.2,0.6-1.7c0.4-0.5,0.9-0.8,1.5-1c0.6-0.2,1.3-0.3,2-0.3
	c0.9,0,1.7,0.1,2.3,0.4c0.7,0.3,1.2,0.7,1.6,1.2c0.2,0.2,0.2,0.4,0.2,0.6c0,0.2-0.1,0.4-0.3,0.5c-0.2,0.1-0.4,0.2-0.7,0.1
	c-0.3,0-0.5-0.2-0.6-0.3c-0.3-0.3-0.7-0.6-1.1-0.7c-0.4-0.1-0.9-0.2-1.4-0.2c-0.6,0-1.2,0.1-1.6,0.4c-0.4,0.2-0.6,0.6-0.6,1
	c0,0.3,0.1,0.5,0.2,0.7c0.1,0.2,0.4,0.4,0.8,0.6c0.4,0.2,0.9,0.3,1.7,0.4c1,0.2,1.8,0.4,2.4,0.7c0.6,0.3,1,0.7,1.3,1.1
	c0.3,0.4,0.4,0.9,0.4,1.4c0,0.6-0.2,1.2-0.5,1.7c-0.3,0.5-0.8,0.9-1.5,1.1C130.4,87.1,129.6,87.2,128.7,87.2z M148.7,87.3
	c-1.1,0-2.1-0.2-3-0.6c-0.9-0.4-1.8-1-2.5-1.7c-0.7-0.7-1.2-1.6-1.6-2.6c-0.4-1-0.6-2-0.6-3.1c0-1.1,0.2-2.1,0.6-3.1
	c0.4-1,1-1.8,1.7-2.6s1.5-1.3,2.5-1.7c0.9-0.4,1.9-0.6,3-0.6c1,0,1.9,0.1,2.6,0.4c0.8,0.3,1.5,0.7,2.3,1.3c0.1,0.1,0.2,0.2,0.2,0.3
	c0.1,0.1,0.1,0.2,0.1,0.3c0,0.1,0,0.2-0.1,0.3c0,0.2-0.1,0.4-0.3,0.5c-0.1,0.1-0.3,0.2-0.5,0.2c-0.2,0-0.4-0.1-0.6-0.2
	c-0.5-0.4-1-0.8-1.6-1c-0.6-0.2-1.3-0.3-2.1-0.3c-0.8,0-1.6,0.2-2.3,0.5c-0.7,0.3-1.3,0.8-1.9,1.4c-0.5,0.6-1,1.2-1.3,2
	c-0.3,0.8-0.5,1.6-0.5,2.4c0,0.9,0.2,1.7,0.5,2.5c0.3,0.7,0.7,1.4,1.3,2c0.5,0.6,1.2,1,1.9,1.3c0.7,0.3,1.5,0.5,2.3,0.5
	c0.7,0,1.4-0.1,2-0.3c0.6-0.2,1.2-0.6,1.8-1c0.2-0.2,0.4-0.2,0.6-0.2c0.2,0,0.4,0.1,0.5,0.3c0.1,0.1,0.2,0.4,0.2,0.6
	c0,0.1,0,0.2-0.1,0.4c0,0.1-0.1,0.2-0.2,0.3c-0.7,0.6-1.5,1-2.3,1.3C150.5,87.2,149.6,87.3,148.7,87.3z M161.1,87.2
	c-1.1,0-2-0.2-2.9-0.7c-0.8-0.5-1.5-1.1-2-2c-0.5-0.8-0.7-1.8-0.7-2.9c0-1.1,0.2-2.1,0.7-2.9c0.5-0.8,1.1-1.5,2-2
	c0.8-0.5,1.8-0.7,2.9-0.7c1.1,0,2,0.2,2.8,0.7c0.8,0.5,1.5,1.1,2,2c0.5,0.8,0.7,1.8,0.7,2.9c0,1.1-0.2,2-0.7,2.9
	c-0.5,0.8-1.1,1.5-2,2C163.2,87,162.2,87.2,161.1,87.2z M161.1,85.6c0.7,0,1.4-0.2,1.9-0.5c0.6-0.3,1-0.8,1.3-1.4
	c0.3-0.6,0.5-1.3,0.5-2c0-0.8-0.2-1.4-0.5-2c-0.3-0.6-0.8-1.1-1.3-1.4c-0.6-0.3-1.2-0.5-1.9-0.5c-0.7,0-1.4,0.2-1.9,0.5
	c-0.6,0.3-1,0.8-1.3,1.4c-0.3,0.6-0.5,1.3-0.5,2c0,0.8,0.2,1.4,0.5,2c0.3,0.6,0.8,1,1.3,1.4C159.8,85.4,160.4,85.6,161.1,85.6z
	 M184.2,87.1c-0.3,0-0.5-0.1-0.7-0.3c-0.2-0.2-0.3-0.4-0.3-0.7l0-5.7c0-0.9-0.2-1.6-0.7-2c-0.4-0.5-1-0.7-1.7-0.7
	c-0.7,0-1.4,0.3-1.8,0.8c-0.5,0.5-0.7,1.2-0.7,2l-1.6,0c0-0.9,0.2-1.7,0.6-2.3c0.4-0.7,0.9-1.2,1.6-1.6s1.4-0.6,2.3-0.6
	c0.8,0,1.5,0.2,2,0.5c0.6,0.3,1.1,0.9,1.4,1.5c0.3,0.7,0.5,1.4,0.5,2.4l0,5.7c0,0.3-0.1,0.5-0.3,0.7C184.7,87,184.5,87.1,184.2,87.1
	z M170.6,87.1c-0.3,0-0.5-0.1-0.7-0.3c-0.2-0.2-0.3-0.4-0.3-0.7l0-9.1c0-0.3,0.1-0.5,0.3-0.7c0.2-0.2,0.4-0.3,0.7-0.3
	c0.3,0,0.5,0.1,0.7,0.3c0.2,0.2,0.3,0.4,0.3,0.7l0,9.1c0,0.3-0.1,0.5-0.3,0.7C171.1,87,170.9,87.1,170.6,87.1z M177.4,87.1
	c-0.3,0-0.5-0.1-0.7-0.3c-0.2-0.2-0.3-0.4-0.3-0.7l0-5.7c0-0.9-0.2-1.6-0.7-2c-0.4-0.5-1-0.7-1.7-0.7c-0.7,0-1.4,0.3-1.9,0.8
	c-0.5,0.5-0.7,1.2-0.7,1.9l-1.2,0c0-0.9,0.2-1.6,0.5-2.3c0.4-0.7,0.8-1.2,1.5-1.6c0.6-0.4,1.3-0.6,2.1-0.6c0.8,0,1.5,0.2,2,0.5
	c0.6,0.3,1.1,0.9,1.4,1.5c0.3,0.7,0.5,1.4,0.5,2.4l0,5.7c0,0.3-0.1,0.5-0.3,0.7C177.9,87,177.7,87.1,177.4,87.1z M203,87.1
	c-0.3,0-0.5-0.1-0.7-0.3c-0.2-0.2-0.3-0.4-0.3-0.7l0-5.7c0-0.9-0.2-1.6-0.7-2c-0.4-0.5-1-0.7-1.7-0.7c-0.7,0-1.4,0.3-1.8,0.8
	c-0.5,0.5-0.7,1.2-0.7,2l-1.6,0c0-0.9,0.2-1.7,0.6-2.3c0.4-0.7,0.9-1.2,1.6-1.6c0.7-0.4,1.4-0.6,2.3-0.6c0.8,0,1.5,0.2,2,0.5
	c0.6,0.3,1.1,0.9,1.4,1.5c0.3,0.7,0.5,1.4,0.5,2.4l0,5.7c0,0.3-0.1,0.5-0.3,0.7C203.5,87,203.3,87.1,203,87.1z M189.4,87.1
	c-0.3,0-0.5-0.1-0.7-0.3c-0.2-0.2-0.3-0.4-0.3-0.7l0-9.1c0-0.3,0.1-0.5,0.3-0.7c0.2-0.2,0.4-0.3,0.7-0.3c0.3,0,0.5,0.1,0.7,0.3
	c0.2,0.2,0.3,0.4,0.3,0.7l0,9.1c0,0.3-0.1,0.5-0.3,0.7C189.9,87,189.7,87.1,189.4,87.1z M196.3,87.1c-0.3,0-0.5-0.1-0.7-0.3
	c-0.2-0.2-0.3-0.4-0.3-0.7l0-5.7c0-0.9-0.2-1.6-0.7-2c-0.4-0.5-1-0.7-1.7-0.7c-0.7,0-1.4,0.3-1.9,0.8c-0.5,0.5-0.7,1.2-0.7,1.9
	l-1.2,0c0-0.9,0.2-1.6,0.5-2.3c0.4-0.7,0.8-1.2,1.5-1.6c0.6-0.4,1.3-0.6,2.1-0.6c0.8,0,1.5,0.2,2,0.5c0.6,0.3,1.1,0.9,1.4,1.5
	c0.3,0.7,0.5,1.4,0.5,2.4l0,5.7c0,0.3-0.1,0.5-0.3,0.7C196.8,87,196.5,87.1,196.3,87.1z M212,87.2c-0.9,0-1.8-0.2-2.5-0.6
	c-0.7-0.4-1.3-1-1.7-1.7c-0.4-0.8-0.6-1.7-0.6-2.8l0-5c0-0.3,0.1-0.5,0.3-0.6c0.2-0.2,0.4-0.3,0.7-0.3c0.3,0,0.5,0.1,0.7,0.3
	c0.2,0.2,0.3,0.4,0.3,0.6l0,5c0,0.8,0.1,1.4,0.4,1.9c0.3,0.5,0.7,0.9,1.2,1.1c0.5,0.2,1.1,0.4,1.7,0.4c0.6,0,1.2-0.1,1.6-0.4
	c0.5-0.2,0.9-0.6,1.1-1c0.3-0.4,0.4-0.9,0.4-1.4l1.2,0c0,0.8-0.2,1.6-0.7,2.2c-0.4,0.7-1,1.2-1.7,1.6C213.7,87,212.9,87.2,212,87.2z
	 M216.4,87.1c-0.3,0-0.5-0.1-0.7-0.3c-0.2-0.2-0.3-0.4-0.3-0.7l0-9.1c0-0.3,0.1-0.5,0.3-0.7s0.4-0.3,0.7-0.3c0.3,0,0.5,0.1,0.7,0.3
	c0.2,0.2,0.3,0.4,0.3,0.7l0,9.1c0,0.3-0.1,0.5-0.3,0.7C216.9,87,216.7,87.1,216.4,87.1z M230.2,87.1c-0.3,0-0.5-0.1-0.7-0.3
	c-0.2-0.2-0.3-0.4-0.3-0.7l0-5c0-0.8-0.1-1.4-0.4-1.9c-0.3-0.5-0.7-0.9-1.2-1.1c-0.5-0.3-1.1-0.4-1.7-0.4c-0.6,0-1.1,0.1-1.6,0.4
	s-0.9,0.6-1.2,1c-0.3,0.4-0.4,0.9-0.4,1.4l-1.2,0c0-0.8,0.2-1.6,0.6-2.2c0.4-0.7,1-1.2,1.7-1.6c0.7-0.4,1.5-0.6,2.4-0.6
	c0.9,0,1.8,0.2,2.5,0.6c0.7,0.4,1.3,1,1.7,1.7c0.4,0.8,0.6,1.7,0.6,2.8l0,5c0,0.3-0.1,0.5-0.3,0.7C230.7,87,230.5,87.1,230.2,87.1z
	 M221.9,87.1c-0.3,0-0.5-0.1-0.7-0.3c-0.2-0.2-0.3-0.4-0.3-0.7l0-9.1c0-0.3,0.1-0.5,0.3-0.7c0.2-0.2,0.4-0.3,0.7-0.3
	c0.3,0,0.5,0.1,0.7,0.3c0.2,0.2,0.3,0.4,0.3,0.7l0,9.1c0,0.3-0.1,0.5-0.3,0.7C222.4,87,222.1,87.1,221.9,87.1z M238.4,87.1
	c-0.9,0-1.7-0.1-2.5-0.4c-0.8-0.3-1.4-0.7-1.9-1.1c-0.2-0.2-0.2-0.4-0.2-0.7c0-0.2,0.1-0.4,0.4-0.6c0.2-0.2,0.5-0.2,0.7-0.2
	c0.2,0,0.4,0.1,0.6,0.3c0.3,0.3,0.7,0.5,1.2,0.8c0.5,0.2,1.1,0.3,1.7,0.3c0.9,0,1.5-0.1,1.9-0.4c0.4-0.3,0.6-0.7,0.7-1.1
	c0-0.4-0.2-0.8-0.6-1.1c-0.4-0.3-1.1-0.5-2.2-0.7c-1.3-0.3-2.3-0.6-2.9-1.2c-0.6-0.5-0.9-1.2-0.9-1.9c0-0.7,0.2-1.2,0.6-1.7
	c0.4-0.5,0.9-0.8,1.5-1c0.6-0.2,1.3-0.3,2-0.3c0.9,0,1.7,0.1,2.3,0.4c0.7,0.3,1.2,0.7,1.6,1.2c0.2,0.2,0.2,0.4,0.2,0.6
	c0,0.2-0.1,0.4-0.3,0.5c-0.2,0.1-0.4,0.2-0.7,0.1c-0.3,0-0.5-0.2-0.6-0.3c-0.3-0.3-0.7-0.6-1.1-0.7c-0.4-0.1-0.9-0.2-1.4-0.2
	c-0.6,0-1.2,0.1-1.6,0.4c-0.4,0.2-0.6,0.6-0.6,1c0,0.3,0.1,0.5,0.2,0.7c0.1,0.2,0.4,0.4,0.8,0.6c0.4,0.2,0.9,0.3,1.7,0.4
	c1,0.2,1.8,0.4,2.4,0.7c0.6,0.3,1,0.7,1.3,1.1c0.3,0.4,0.4,0.9,0.4,1.4c0,0.6-0.2,1.2-0.5,1.7c-0.3,0.5-0.8,0.9-1.5,1.1
	S239.4,87.1,238.4,87.1z M252.3,87c-0.3,0-0.5-0.1-0.7-0.3c-0.2-0.2-0.3-0.4-0.3-0.7l0-13.7c0-0.3,0.1-0.5,0.3-0.7s0.4-0.3,0.7-0.3
	c0.3,0,0.5,0.1,0.7,0.3l9.1,12l0-11.4c0-0.3,0.1-0.5,0.3-0.7c0.2-0.2,0.4-0.3,0.7-0.3c0.3,0,0.5,0.1,0.7,0.3
	c0.2,0.2,0.3,0.4,0.3,0.7l0,13.7c0,0.3-0.1,0.5-0.3,0.7c-0.2,0.2-0.4,0.3-0.7,0.3c-0.1,0-0.3,0-0.4-0.1c-0.1-0.1-0.2-0.1-0.3-0.2
	l-9.1-12l0,11.4c0,0.3-0.1,0.5-0.3,0.7C252.8,86.9,252.6,87,252.3,87z M272.4,87.1c-0.9,0-1.8-0.2-2.5-0.6c-0.7-0.4-1.3-1-1.7-1.7
	c-0.4-0.8-0.6-1.7-0.6-2.8l0-5c0-0.3,0.1-0.5,0.3-0.6c0.2-0.2,0.4-0.3,0.7-0.3c0.3,0,0.5,0.1,0.7,0.3c0.2,0.2,0.3,0.4,0.3,0.6l0,5
	c0,0.8,0.1,1.4,0.4,1.9c0.3,0.5,0.7,0.9,1.2,1.1c0.5,0.2,1.1,0.4,1.7,0.4c0.6,0,1.2-0.1,1.6-0.4c0.5-0.2,0.9-0.6,1.1-1
	c0.3-0.4,0.4-0.9,0.4-1.4l1.2,0c0,0.8-0.2,1.6-0.7,2.2c-0.4,0.7-1,1.2-1.7,1.6C274.1,86.9,273.3,87.1,272.4,87.1z M276.9,87
	c-0.3,0-0.5-0.1-0.7-0.3c-0.2-0.2-0.3-0.4-0.3-0.7l0-9.1c0-0.3,0.1-0.5,0.3-0.7c0.2-0.2,0.4-0.3,0.7-0.3c0.3,0,0.5,0.1,0.7,0.3
	c0.2,0.2,0.3,0.4,0.3,0.7l0,9.1c0,0.3-0.1,0.5-0.3,0.7C277.3,86.9,277.1,87,276.9,87z M295.9,87c-0.3,0-0.5-0.1-0.7-0.3
	c-0.2-0.2-0.3-0.4-0.3-0.7l0-5.7c0-0.9-0.2-1.6-0.7-2c-0.4-0.5-1-0.7-1.7-0.7c-0.7,0-1.4,0.3-1.8,0.8c-0.5,0.5-0.7,1.2-0.7,2l-1.6,0
	c0-0.9,0.2-1.7,0.6-2.3c0.4-0.7,0.9-1.2,1.6-1.6c0.7-0.4,1.4-0.6,2.3-0.6c0.8,0,1.5,0.2,2,0.5c0.6,0.3,1.1,0.9,1.4,1.5
	c0.3,0.7,0.5,1.4,0.5,2.4l0,5.7c0,0.3-0.1,0.5-0.3,0.7C296.4,86.9,296.2,87,295.9,87z M282.3,87c-0.3,0-0.5-0.1-0.7-0.3
	c-0.2-0.2-0.3-0.4-0.3-0.7l0-9.1c0-0.3,0.1-0.5,0.3-0.7c0.2-0.2,0.4-0.3,0.7-0.3c0.3,0,0.5,0.1,0.7,0.3c0.2,0.2,0.3,0.4,0.3,0.7
	l0,9.1c0,0.3-0.1,0.5-0.3,0.7C282.8,86.9,282.6,87,282.3,87z M289.1,87c-0.3,0-0.5-0.1-0.7-0.3c-0.2-0.2-0.3-0.4-0.3-0.7l0-5.7
	c0-0.9-0.2-1.6-0.7-2c-0.4-0.5-1-0.7-1.7-0.7c-0.7,0-1.4,0.3-1.9,0.8c-0.5,0.5-0.7,1.2-0.7,1.9l-1.2,0c0-0.9,0.2-1.6,0.5-2.3
	c0.4-0.7,0.8-1.2,1.5-1.6c0.6-0.4,1.3-0.6,2.1-0.6c0.8,0,1.5,0.2,2,0.5c0.6,0.3,1.1,0.9,1.4,1.5c0.3,0.7,0.5,1.4,0.5,2.4l0,5.7
	c0,0.3-0.1,0.5-0.3,0.7C289.6,86.9,289.4,87,289.1,87z M305.3,87.1c-1.1,0-2.1-0.2-2.9-0.7c-0.8-0.5-1.5-1.1-2-2
	c-0.5-0.8-0.7-1.8-0.7-2.9c0-1.1,0.2-2.1,0.7-2.9c0.5-0.8,1.1-1.5,1.9-2c0.8-0.5,1.7-0.7,2.8-0.7c1,0,1.9,0.2,2.7,0.7
	c0.7,0.5,1.3,1.1,1.7,1.9c0.4,0.8,0.6,1.7,0.6,2.8c0,0.2-0.1,0.4-0.2,0.6c-0.1,0.1-0.3,0.2-0.6,0.2l-8.2,0l0-1.5l8.2,0l-0.8,0.6
	c0-0.7-0.2-1.3-0.4-1.9c-0.3-0.6-0.6-1-1.1-1.3c-0.5-0.3-1.1-0.5-1.8-0.5c-0.8,0-1.4,0.2-2,0.5c-0.5,0.3-1,0.8-1.3,1.4
	c-0.3,0.6-0.4,1.3-0.4,2c0,0.8,0.2,1.4,0.5,2c0.3,0.6,0.8,1.1,1.4,1.4c0.6,0.3,1.3,0.5,2.1,0.5c0.4,0,0.9-0.1,1.3-0.2
	c0.5-0.2,0.8-0.3,1.1-0.6c0.2-0.1,0.4-0.2,0.6-0.2c0.2,0,0.4,0,0.6,0.2c0.2,0.2,0.3,0.4,0.3,0.6c0,0.2-0.1,0.4-0.3,0.6
	c-0.5,0.4-1,0.7-1.7,0.9C306.5,87,305.9,87.1,305.3,87.1z M304.8,74.3c-0.3,0-0.5-0.1-0.7-0.3c-0.2-0.2-0.3-0.4-0.3-0.7
	c0-0.3,0.1-0.5,0.2-0.6l2.1-2.1c0.2-0.2,0.4-0.3,0.6-0.3c0.3,0,0.5,0.1,0.7,0.3c0.2,0.2,0.3,0.4,0.3,0.7c0,0.1,0,0.2-0.1,0.3
	c0,0.1-0.1,0.2-0.2,0.3l-2.1,2.1C305.3,74.3,305,74.3,304.8,74.3z M313.4,80.2c0-0.8,0.2-1.5,0.6-2.2c0.4-0.6,0.9-1.1,1.6-1.5
	c0.7-0.4,1.4-0.6,2.2-0.6c0.7,0,1.3,0.1,1.6,0.3c0.4,0.2,0.5,0.5,0.4,0.9c0,0.2-0.1,0.3-0.2,0.4c-0.1,0.1-0.3,0.1-0.4,0.1
	c-0.2,0-0.3,0-0.5,0c-0.8-0.1-1.5-0.1-2.2,0.1c-0.6,0.2-1.1,0.5-1.5,0.9c-0.4,0.4-0.6,0.9-0.6,1.6L313.4,80.2z M313.5,87
	c-0.3,0-0.5-0.1-0.7-0.2c-0.2-0.2-0.2-0.4-0.2-0.7l0-9.1c0-0.3,0.1-0.5,0.2-0.7c0.2-0.2,0.4-0.2,0.7-0.2c0.3,0,0.5,0.1,0.7,0.2
	c0.2,0.1,0.2,0.4,0.2,0.7l0,9.1c0,0.3-0.1,0.5-0.2,0.7C314,86.9,313.8,87,313.5,87z M323.2,87c-0.3,0-0.5-0.1-0.7-0.3
	c-0.2-0.2-0.3-0.4-0.3-0.7l0-9.1c0-0.3,0.1-0.5,0.3-0.7c0.2-0.2,0.4-0.3,0.7-0.3c0.3,0,0.5,0.1,0.7,0.3c0.2,0.2,0.3,0.4,0.3,0.7
	l0,9.1c0,0.3-0.1,0.5-0.3,0.7C323.7,86.9,323.5,87,323.2,87z M323.2,74.1c-0.3,0-0.6-0.1-0.9-0.4c-0.2-0.2-0.4-0.5-0.4-0.9
	c0-0.3,0.1-0.6,0.4-0.9c0.3-0.2,0.5-0.4,0.9-0.4c0.3,0,0.6,0.1,0.8,0.4c0.3,0.2,0.4,0.5,0.4,0.9c0,0.3-0.1,0.6-0.4,0.9
	C323.8,74,323.5,74.1,323.2,74.1z M337.5,91.6c-0.3,0-0.5-0.1-0.7-0.3c-0.2-0.2-0.3-0.4-0.3-0.7l0-5.6c-0.5,0.6-1,1.1-1.7,1.4
	c-0.7,0.3-1.4,0.5-2.3,0.5c-1,0-1.9-0.2-2.7-0.7c-0.8-0.5-1.4-1.1-1.9-2s-0.7-1.8-0.7-2.8c0-1.1,0.2-2,0.7-2.8c0.5-0.8,1.1-1.5,2-2
	c0.8-0.5,1.8-0.7,2.8-0.7c1,0,2,0.2,2.8,0.7c0.8,0.5,1.5,1.1,2,2c0.5,0.8,0.7,1.8,0.8,2.8l0,9.3c0,0.3-0.1,0.5-0.3,0.7
	S337.8,91.6,337.5,91.6z M332.9,85.4c0.7,0,1.4-0.2,1.9-0.5c0.6-0.3,1-0.8,1.3-1.4c0.3-0.6,0.5-1.3,0.5-2c0-0.7-0.2-1.4-0.5-2
	c-0.3-0.6-0.8-1.1-1.3-1.4c-0.6-0.3-1.2-0.5-1.9-0.5c-0.7,0-1.3,0.2-1.9,0.5c-0.6,0.3-1,0.8-1.4,1.4c-0.3,0.6-0.5,1.3-0.5,2
	c0,0.7,0.2,1.4,0.5,2c0.3,0.6,0.8,1.1,1.4,1.4C331.6,85.2,332.3,85.4,332.9,85.4z M346.7,87c-0.9,0-1.8-0.2-2.5-0.6
	c-0.7-0.4-1.3-1-1.7-1.7c-0.4-0.8-0.6-1.7-0.6-2.8l0-5c0-0.3,0.1-0.5,0.3-0.6c0.2-0.2,0.4-0.3,0.7-0.3c0.3,0,0.5,0.1,0.7,0.3
	c0.2,0.2,0.3,0.4,0.3,0.6l0,5c0,0.8,0.1,1.4,0.4,1.9s0.7,0.9,1.2,1.1c0.5,0.2,1.1,0.4,1.7,0.4c0.6,0,1.2-0.1,1.6-0.4
	c0.5-0.2,0.9-0.6,1.1-1c0.3-0.4,0.4-0.9,0.4-1.4l1.2,0c0,0.8-0.2,1.6-0.7,2.2c-0.4,0.7-1,1.2-1.7,1.6C348.4,86.9,347.6,87,346.7,87z
	 M351.2,86.9c-0.3,0-0.5-0.1-0.7-0.3c-0.2-0.2-0.3-0.4-0.3-0.7l0-9.1c0-0.3,0.1-0.5,0.3-0.7c0.2-0.2,0.4-0.3,0.7-0.3
	c0.3,0,0.5,0.1,0.7,0.3c0.2,0.2,0.3,0.4,0.3,0.7l0,9.1c0,0.3-0.1,0.5-0.3,0.7C351.7,86.9,351.4,86.9,351.2,86.9z M360.8,87
	c-1.1,0-2.1-0.2-2.9-0.7c-0.8-0.5-1.5-1.1-2-2c-0.5-0.8-0.7-1.8-0.7-2.9c0-1.1,0.2-2.1,0.7-2.9c0.5-0.8,1.1-1.5,1.9-2
	c0.8-0.5,1.7-0.7,2.8-0.7c1,0,1.9,0.2,2.7,0.7c0.7,0.5,1.3,1.1,1.7,1.9c0.4,0.8,0.6,1.7,0.6,2.8c0,0.2-0.1,0.4-0.2,0.6
	c-0.1,0.1-0.3,0.2-0.6,0.2l-8.2,0l0-1.5l8.2,0l-0.8,0.6c0-0.7-0.2-1.3-0.4-1.9c-0.3-0.6-0.6-1-1.1-1.3c-0.5-0.3-1.1-0.5-1.8-0.5
	c-0.8,0-1.4,0.2-2,0.5c-0.5,0.3-1,0.8-1.3,1.4c-0.3,0.6-0.4,1.3-0.4,2c0,0.8,0.2,1.4,0.5,2c0.3,0.6,0.8,1.1,1.4,1.4
	c0.6,0.3,1.3,0.5,2.1,0.5c0.4,0,0.9-0.1,1.3-0.2c0.5-0.2,0.8-0.3,1.1-0.6c0.2-0.1,0.4-0.2,0.6-0.2c0.2,0,0.4,0,0.6,0.2
	c0.2,0.2,0.3,0.4,0.3,0.6c0,0.2-0.1,0.4-0.3,0.6c-0.5,0.4-1,0.7-1.7,0.9C362,86.9,361.4,87,360.8,87z M372,87
	c-0.9,0-1.7-0.1-2.5-0.4c-0.8-0.3-1.4-0.7-1.9-1.1c-0.2-0.2-0.2-0.4-0.2-0.7c0-0.2,0.1-0.4,0.4-0.6c0.2-0.2,0.5-0.2,0.7-0.2
	c0.2,0,0.4,0.1,0.6,0.3c0.3,0.3,0.7,0.5,1.2,0.8c0.5,0.2,1.1,0.3,1.7,0.3c0.9,0,1.5-0.1,1.9-0.4c0.4-0.3,0.6-0.7,0.7-1.1
	c0-0.4-0.2-0.8-0.6-1.1c-0.4-0.3-1.1-0.5-2.2-0.7c-1.3-0.3-2.3-0.6-2.9-1.2c-0.6-0.5-0.9-1.2-0.9-1.9c0-0.7,0.2-1.2,0.6-1.7
	c0.4-0.5,0.9-0.8,1.5-1c0.6-0.2,1.3-0.3,2-0.3c0.9,0,1.7,0.1,2.3,0.4c0.7,0.3,1.2,0.7,1.6,1.2c0.2,0.2,0.2,0.4,0.2,0.6
	c0,0.2-0.1,0.4-0.3,0.5c-0.2,0.1-0.4,0.2-0.7,0.1c-0.3,0-0.5-0.2-0.6-0.3c-0.3-0.3-0.7-0.6-1.1-0.7c-0.4-0.1-0.9-0.2-1.4-0.2
	c-0.6,0-1.2,0.1-1.6,0.4c-0.4,0.2-0.6,0.6-0.6,1c0,0.3,0.1,0.5,0.2,0.7c0.1,0.2,0.4,0.4,0.8,0.6c0.4,0.2,0.9,0.3,1.7,0.4
	c1,0.2,1.8,0.4,2.4,0.7c0.6,0.3,1,0.7,1.3,1.1c0.3,0.4,0.4,0.9,0.4,1.4c0,0.6-0.2,1.2-0.5,1.7c-0.3,0.5-0.8,0.9-1.5,1.1
	C373.6,86.9,372.9,87,372,87z M385.9,86.9c-0.3,0-0.5-0.1-0.7-0.3c-0.2-0.2-0.3-0.4-0.3-0.7l0-13.7c0-0.3,0.1-0.5,0.3-0.7
	c0.2-0.2,0.4-0.3,0.7-0.3l9.2,0c0.3,0,0.5,0.1,0.7,0.3c0.2,0.2,0.3,0.4,0.3,0.6c0,0.2-0.1,0.4-0.3,0.6c-0.2,0.2-0.4,0.2-0.7,0.2
	l-8.2,0l0,5.1l5.9,0c0.3,0,0.5,0.1,0.7,0.3c0.2,0.2,0.3,0.4,0.3,0.6c0,0.3-0.1,0.5-0.3,0.6c-0.2,0.2-0.4,0.2-0.7,0.2l-5.9,0l0,5.2
	l8.2,0c0.3,0,0.5,0.1,0.7,0.3c0.2,0.2,0.3,0.4,0.3,0.6c0,0.3-0.1,0.5-0.3,0.7c-0.2,0.2-0.4,0.2-0.7,0.2L385.9,86.9z M390.6,69.6
	c-0.3,0-0.5-0.1-0.7-0.3c-0.2-0.2-0.3-0.4-0.3-0.7c0-0.3,0.1-0.5,0.2-0.6L392,66c0.2-0.2,0.4-0.3,0.6-0.3c0.3,0,0.5,0.1,0.7,0.3
	c0.2,0.2,0.3,0.4,0.3,0.7c0,0.1,0,0.2-0.1,0.3c0,0.1-0.1,0.2-0.2,0.3l-2.1,2.1C391.1,69.5,390.9,69.6,390.6,69.6z M403.6,87
	c-1,0-2-0.2-2.8-0.7c-0.8-0.5-1.5-1.2-2-2c-0.5-0.8-0.7-1.8-0.7-2.8c0-1.1,0.2-2,0.7-2.8c0.5-0.8,1.1-1.5,1.9-2
	c0.8-0.5,1.7-0.7,2.7-0.7c0.8,0,1.6,0.2,2.3,0.5c0.7,0.3,1.3,0.8,1.7,1.4l0-5.6c0-0.3,0.1-0.5,0.3-0.7c0.2-0.2,0.4-0.3,0.7-0.3
	c0.3,0,0.5,0.1,0.7,0.3c0.2,0.2,0.3,0.4,0.3,0.7l0,9.3c0,1-0.3,2-0.8,2.8c-0.5,0.8-1.1,1.5-2,2C405.6,86.7,404.7,87,403.6,87z
	 M403.6,85.3c0.7,0,1.4-0.2,1.9-0.5c0.6-0.3,1-0.8,1.3-1.4c0.3-0.6,0.5-1.3,0.5-2c0-0.7-0.2-1.4-0.5-2c-0.3-0.6-0.8-1-1.3-1.4
	c-0.6-0.3-1.2-0.5-1.9-0.5c-0.7,0-1.3,0.2-1.9,0.5c-0.6,0.3-1,0.8-1.4,1.4c-0.3,0.6-0.5,1.3-0.5,2c0,0.7,0.2,1.4,0.5,2
	c0.3,0.6,0.8,1.1,1.4,1.4C402.3,85.2,402.9,85.3,403.6,85.3z M417.4,87c-0.9,0-1.8-0.2-2.5-0.6c-0.7-0.4-1.3-1-1.7-1.7
	c-0.4-0.8-0.6-1.7-0.6-2.8l0-5c0-0.3,0.1-0.5,0.3-0.6c0.2-0.2,0.4-0.3,0.7-0.3c0.3,0,0.5,0.1,0.7,0.3c0.2,0.2,0.3,0.4,0.3,0.6l0,5
	c0,0.8,0.1,1.4,0.4,1.9c0.3,0.5,0.7,0.9,1.2,1.1c0.5,0.2,1.1,0.4,1.7,0.4c0.6,0,1.2-0.1,1.6-0.4c0.5-0.2,0.9-0.6,1.1-1
	c0.3-0.4,0.4-0.9,0.4-1.4l1.2,0c0,0.8-0.2,1.6-0.7,2.2c-0.4,0.7-1,1.2-1.7,1.6C419.1,86.8,418.3,87,417.4,87z M421.9,86.9
	c-0.3,0-0.5-0.1-0.7-0.3s-0.3-0.4-0.3-0.7l0-9.1c0-0.3,0.1-0.5,0.3-0.7c0.2-0.2,0.4-0.3,0.7-0.3c0.3,0,0.5,0.1,0.7,0.3
	c0.2,0.2,0.3,0.4,0.3,0.7l0,9.1c0,0.3-0.1,0.5-0.3,0.7C422.3,86.8,422.1,86.9,421.9,86.9z M431.3,87c-1.1,0-2-0.2-2.8-0.7
	c-0.8-0.5-1.5-1.2-2-2c-0.5-0.8-0.7-1.8-0.7-2.8c0-1.1,0.2-2,0.7-2.9c0.5-0.8,1.1-1.5,1.9-2c0.8-0.5,1.7-0.7,2.8-0.7
	c0.8,0,1.5,0.2,2.2,0.5c0.7,0.3,1.3,0.8,1.8,1.4c0.2,0.2,0.2,0.4,0.2,0.6c0,0.2-0.2,0.4-0.4,0.6c-0.2,0.1-0.3,0.2-0.6,0.1
	c-0.2,0-0.4-0.2-0.6-0.3c-0.7-0.8-1.6-1.1-2.6-1.1c-0.7,0-1.3,0.2-1.9,0.5c-0.5,0.3-1,0.8-1.3,1.4c-0.3,0.6-0.4,1.3-0.4,2
	c0,0.7,0.2,1.4,0.5,2c0.3,0.6,0.8,1.1,1.3,1.4c0.6,0.3,1.2,0.5,1.9,0.5c0.5,0,0.9-0.1,1.3-0.2c0.4-0.1,0.7-0.3,1-0.6
	c0.2-0.2,0.4-0.2,0.6-0.3c0.2,0,0.4,0,0.6,0.2c0.2,0.2,0.3,0.4,0.3,0.6c0,0.2,0,0.4-0.2,0.6C433.9,86.5,432.7,86.9,431.3,87z
	 M443,86.9c-1,0-1.9-0.2-2.7-0.7c-0.8-0.5-1.4-1.1-1.9-2c-0.5-0.8-0.7-1.8-0.7-2.8c0-1.1,0.2-2,0.7-2.8c0.5-0.8,1.2-1.5,2-2
	c0.8-0.5,1.8-0.7,2.8-0.7c1.1,0,2,0.2,2.8,0.7c0.8,0.5,1.5,1.1,2,2c0.5,0.8,0.7,1.8,0.8,2.8l-0.7,0.2c0,1-0.2,1.9-0.7,2.7
	c-0.5,0.8-1.1,1.5-1.8,1.9C444.8,86.7,444,86.9,443,86.9z M443.3,85.3c0.7,0,1.4-0.2,1.9-0.5c0.6-0.3,1-0.8,1.3-1.4
	c0.3-0.6,0.5-1.3,0.5-2c0-0.7-0.2-1.4-0.5-2c-0.3-0.6-0.8-1.1-1.3-1.4c-0.6-0.3-1.2-0.5-1.9-0.5c-0.7,0-1.3,0.2-1.9,0.5
	c-0.6,0.3-1,0.8-1.4,1.4c-0.3,0.6-0.5,1.3-0.5,2c0,0.7,0.2,1.4,0.5,2c0.3,0.6,0.8,1.1,1.4,1.4C442,85.1,442.6,85.3,443.3,85.3z
	 M447.9,86.9c-0.3,0-0.5-0.1-0.7-0.3c-0.2-0.2-0.3-0.4-0.3-0.7l0-3.2l0.4-1.9l1.5,0.6l0,4.6c0,0.3-0.1,0.5-0.3,0.7
	C448.4,86.8,448.2,86.9,447.9,86.9z M456,86.8c-0.7,0-1.3-0.2-1.8-0.5c-0.5-0.3-1-0.8-1.3-1.4c-0.3-0.6-0.5-1.3-0.5-2l0-9.6
	c0-0.3,0.1-0.5,0.2-0.7c0.2-0.2,0.4-0.3,0.7-0.3c0.3,0,0.5,0.1,0.7,0.3c0.2,0.2,0.3,0.4,0.3,0.7l0,9.6c0,0.6,0.2,1.1,0.5,1.5
	c0.3,0.4,0.8,0.6,1.3,0.6l0.6,0c0.2,0,0.4,0.1,0.6,0.3c0.2,0.2,0.2,0.4,0.2,0.7c0,0.3-0.1,0.5-0.3,0.7c-0.2,0.2-0.4,0.2-0.7,0.2
	L456,86.8z M451.3,77.9c-0.2,0-0.4-0.1-0.6-0.2s-0.2-0.3-0.2-0.6c0-0.2,0.1-0.4,0.2-0.6c0.2-0.1,0.4-0.2,0.6-0.2l4.8,0
	c0.2,0,0.4,0.1,0.6,0.2c0.2,0.1,0.2,0.3,0.2,0.6c0,0.2-0.1,0.4-0.2,0.6c-0.2,0.1-0.4,0.2-0.6,0.2L451.3,77.9z M461.1,86.8
	c-0.3,0-0.5-0.1-0.7-0.3c-0.2-0.2-0.3-0.4-0.3-0.7l0-9.1c0-0.3,0.1-0.5,0.3-0.7c0.2-0.2,0.4-0.3,0.7-0.3c0.3,0,0.5,0.1,0.7,0.3
	c0.2,0.2,0.3,0.4,0.3,0.7l0,9.1c0,0.3-0.1,0.5-0.3,0.7C461.5,86.8,461.3,86.8,461.1,86.8z M461,74c-0.3,0-0.6-0.1-0.9-0.4
	c-0.2-0.2-0.4-0.5-0.4-0.9c0-0.3,0.1-0.6,0.4-0.9c0.3-0.2,0.5-0.4,0.9-0.4c0.3,0,0.6,0.1,0.8,0.4c0.3,0.2,0.4,0.5,0.4,0.9
	c0,0.3-0.1,0.6-0.4,0.9C461.7,73.9,461.4,74,461,74z M467.1,86.8c-0.2,0-0.4-0.1-0.6-0.2c-0.2-0.2-0.3-0.4-0.3-0.7l0-10
	c0-0.9,0.2-1.8,0.5-2.5c0.4-0.7,0.9-1.3,1.5-1.6c0.7-0.4,1.4-0.6,2.3-0.6c0.3,0,0.5,0.1,0.7,0.2c0.2,0.2,0.3,0.4,0.3,0.6
	c0,0.2-0.1,0.4-0.3,0.6c-0.2,0.2-0.4,0.2-0.7,0.2c-0.5,0-1,0.1-1.4,0.4c-0.4,0.2-0.7,0.6-0.9,1c-0.2,0.4-0.3,0.9-0.3,1.5l0,10.1
	c0,0.3-0.1,0.5-0.3,0.7C467.6,86.8,467.4,86.8,467.1,86.8z M465.1,77.9c-0.3,0-0.5-0.1-0.6-0.2c-0.1-0.1-0.2-0.3-0.2-0.6
	c0-0.2,0.1-0.4,0.2-0.6c0.2-0.1,0.4-0.2,0.6-0.2l5,0c0.3,0,0.5,0.1,0.6,0.2s0.2,0.3,0.2,0.6c0,0.2-0.1,0.4-0.2,0.6s-0.4,0.2-0.6,0.2
	L465.1,77.9z M477.1,86.9c-0.9,0-1.7-0.1-2.5-0.4c-0.8-0.3-1.4-0.7-1.9-1.1c-0.2-0.2-0.2-0.4-0.2-0.7c0-0.2,0.1-0.4,0.4-0.6
	c0.2-0.2,0.5-0.2,0.7-0.2c0.2,0,0.4,0.1,0.6,0.3c0.3,0.3,0.7,0.5,1.2,0.8c0.5,0.2,1.1,0.3,1.7,0.3c0.9,0,1.5-0.1,1.9-0.4
	c0.4-0.3,0.6-0.7,0.7-1.1c0-0.4-0.2-0.8-0.6-1.1c-0.4-0.3-1.1-0.5-2.2-0.7c-1.3-0.3-2.3-0.6-2.9-1.2c-0.6-0.5-0.9-1.2-0.9-1.9
	c0-0.7,0.2-1.2,0.6-1.7c0.4-0.5,0.9-0.8,1.5-1c0.6-0.2,1.3-0.3,2-0.3c0.9,0,1.7,0.1,2.3,0.4c0.7,0.3,1.2,0.7,1.6,1.2
	c0.2,0.2,0.2,0.4,0.2,0.6c0,0.2-0.1,0.4-0.3,0.5c-0.2,0.1-0.4,0.2-0.7,0.1c-0.3,0-0.5-0.2-0.6-0.3c-0.3-0.3-0.7-0.6-1.1-0.7
	c-0.4-0.1-0.9-0.2-1.4-0.2c-0.6,0-1.2,0.1-1.6,0.4c-0.4,0.2-0.6,0.6-0.6,1c0,0.3,0.1,0.5,0.2,0.7c0.1,0.2,0.4,0.4,0.8,0.6
	c0.4,0.2,0.9,0.3,1.7,0.4c1,0.2,1.8,0.4,2.4,0.7c0.6,0.3,1,0.7,1.3,1.1c0.3,0.4,0.4,0.9,0.4,1.4c0,0.6-0.2,1.2-0.5,1.7
	c-0.3,0.5-0.8,0.9-1.5,1.1C478.8,86.8,478,86.9,477.1,86.9z"/>
</svg>
